{
  "alert": {
    "condition": "max(max(net.request.time)) > 8000000000",
    "description": "API - Nginx Request Time",
    "filter": "agent.tag.environment = \"prod-117\" and kubernetes.namespace.name = \"kube-system\" and kubernetes.replicationController.label.app = \"nginx-ingress\"",
    "name": "API - Nginx Request Time",
    "notify": [
      "EMAIL"
    ],
    "segmentBy": [
        "kubernetes.pod.name"
    ],
    "segmentCondition": {
        "type": "ANY"
    },
    "severity": 3,
    "timespan": 180000000,
    "type": "MANUAL",
    "monitor":[
      {
        "metric": "net.request.time"
      }
    ]
  }
}
